{
  "url": "http://sendmysterygift.com",
  "api": {
    "facebook": {
      "appId": "690112417686026",
      "appSecret": "2f628c28189d1a6132755e54bb9b10b6"
    },
    "google": {
      "clientId": "306691420641-gjd3i287ce61bm3ssvi1no521fc8m8an.apps.googleusercontent.com",
      "clientSecret": "QTKwaxAM333O1bA3nM1aHrFb"
    },
    "twitter": {
      "accessToken": "40758997-MUngKJfZVA7BzUIopmw9aMPQ14K4JLukD8qlFe6sM",
      "accessTokenSecret": "xFzsQvwBXPSFqOxtVXCefEstNXlHlJ1lYzZxdRdhgQOdp",
      "consumerKey": "GBl2DUN0rXfN1qZ7PMNxPg",
      "consumerSecret": "gvoBy2MxLHPAezGjcgVmFLqM61O4344TqftDRdGQRM"
    }
  },
  "aws": {
    "key": "@@@@@",
    "secret": "@@@@@",
    "s3": {
      "buckets": {
        "main": "ultimate"
      }
    }
  },
  "cookie": {
    "secret": "ultimate"
  },
  "db": {
    "mongo": {
      "host": "localhost",
      "port": 27017,
      "username": null,
      "password": null,
      "db": "ultimate"
    },
    "redis": {
      "host": "localhost",
      "port": 6379,
      "password": null
    }
  },
  "repl": {
    "socket": "/tmp/ultimate-repl"
  },
  "session": {
    "key": "sid",
    "secret": "ultimate",
    "store": {
      "_use": "mongo",
      "mongo": {
        "collection": "sessions"
      },
      "redis": {
        "prefix": "ultimate:sessions"
      }
    }
  }
}
